changed explore market page from displaying 10 images to "".
 in useNFTTokenIds.js on line 24 (limit: 10)
 added nft minting contract and dapp.


         <>
        <Layout>
                <Card>
                    <img src="https://www.itespresso.es/wp-content/uploads/2021/06/NFT.png" height = "1000px"/>
                </Card>
       </Layout>
        </>